<?xml version="1.0" encoding="utf-8"?>
<!-- Generator: Adobe Illustrator 19.1.0, SVG Export Plug-In . SVG Version: 6.00 Build 0)  -->
<svg version="1.1" id="Layer_1" xmlns="http://www.w3.org/2000/svg" xmlns:xlink="http://www.w3.org/1999/xlink" x="0px" y="0px"
	 viewBox="0 0 170.1 205.7" style="enable-background:new 0 0 170.1 205.7;" xml:space="preserve">
<style type="text/css">
	.st0{fill:#FFFFFF;}
</style>
<g>
	<rect width="170.1" height="170.1"/>
	<path class="st0" d="M30,89c0,15.9,23.7,28.8,52.9,28.8c29.2,0,52.9-12.9,52.9-28.8c0-11-11.3-20.6-27.9-25.4L83,89V74.5l25-25.2
		c-7.4-2.2-16.1-3.4-25.1-3.4l0,14.2C53.7,60.2,30,73.1,30,89z"/>
	<g>
		<path d="M10.1,205.7c-1.6,0-2.9-0.2-4.1-0.6s-2.2-0.9-3-1.6c-0.8-0.7-1.5-1.5-1.9-2.4c-0.5-0.9-0.7-2-0.7-3.1h4.2
			c0.3,2.9,2.2,4.3,5.6,4.3c0.6,0,1.2-0.1,1.7-0.2c0.5-0.1,1-0.3,1.4-0.6c0.4-0.3,0.7-0.6,1-1c0.2-0.4,0.3-0.9,0.3-1.5
			c0-0.6-0.1-1.1-0.4-1.5c-0.3-0.4-0.7-0.7-1.2-1c-0.5-0.3-1.1-0.5-1.8-0.7c-0.7-0.2-1.5-0.4-2.4-0.6c-1-0.2-2-0.5-3-0.8
			c-0.9-0.3-1.8-0.7-2.4-1.1s-1.2-1.1-1.7-1.8c-0.4-0.7-0.6-1.7-0.6-2.8c0-1.1,0.2-2,0.6-2.8s1-1.5,1.7-2c0.7-0.5,1.6-0.9,2.6-1.2
			s2.1-0.4,3.3-0.4c2.6,0,4.7,0.6,6.1,1.8c1.5,1.2,2.3,2.8,2.5,4.9h-4.1c-0.2-1.1-0.6-2-1.4-2.6c-0.8-0.6-1.9-0.9-3.2-0.9
			c-1.3,0-2.3,0.2-3,0.7c-0.8,0.5-1.1,1.2-1.1,2.1c0,0.5,0.1,1,0.4,1.3c0.3,0.3,0.6,0.6,1.1,0.9c0.5,0.2,1.1,0.5,1.8,0.6
			c0.7,0.2,1.5,0.4,2.3,0.5c1,0.2,2,0.5,3,0.8s1.8,0.7,2.6,1.2c0.7,0.5,1.3,1.2,1.8,2c0.4,0.8,0.7,1.8,0.7,3c0,1.1-0.2,2.1-0.7,3
			c-0.4,0.9-1.1,1.6-1.8,2.2c-0.8,0.6-1.7,1-2.8,1.3C12.5,205.5,11.3,205.7,10.1,205.7z"/>
		<path d="M25.6,197.5l-1.9,1.9v5.8h-3.8v-22.5h3.8v8.7c0,0.8,0,1.5,0,2.2c0,0.7-0.1,1.3-0.1,1.8l6.1-6.3h4.6l-5.9,5.9l6.6,10.2
			h-4.5L25.6,197.5z"/>
		<path d="M45.7,205.2c-0.1-0.2-0.3-0.4-0.3-0.8c-0.1-0.3-0.2-0.8-0.2-1.3h-0.1c-0.5,0.7-1.2,1.3-2,1.8c-0.8,0.5-1.8,0.7-3.1,0.7
			c-0.8,0-1.5-0.1-2.2-0.3c-0.7-0.2-1.3-0.5-1.7-0.9c-0.5-0.4-0.9-0.9-1.1-1.5s-0.4-1.3-0.4-2.1c0-0.9,0.2-1.7,0.5-2.2
			c0.3-0.6,0.8-1.1,1.4-1.4c0.6-0.4,1.3-0.6,2.1-0.8c0.8-0.2,1.7-0.3,2.7-0.5c1.3-0.2,2.3-0.4,3-0.7c0.7-0.3,1-0.8,1-1.5
			c0-0.7-0.2-1.3-0.7-1.7c-0.5-0.4-1.2-0.6-2.2-0.6c-1.1,0-1.9,0.2-2.4,0.7c-0.5,0.5-0.8,1.1-0.9,1.9h-3.6c0-0.7,0.2-1.3,0.5-2
			c0.3-0.6,0.7-1.2,1.3-1.7s1.3-0.9,2.1-1.2c0.8-0.3,1.8-0.4,3-0.4c0.9,0,1.7,0.1,2.5,0.2c0.7,0.1,1.3,0.4,1.9,0.7
			c1.5,0.9,2.3,2.5,2.3,4.6v8.5c0,0.7,0.1,1.2,0.2,1.5c0.1,0.4,0.3,0.6,0.4,0.7v0.3H45.7z M41.1,202.9c0.7,0,1.2-0.1,1.8-0.3
			c0.5-0.2,0.9-0.5,1.3-0.8c0.3-0.3,0.6-0.7,0.8-1.1c0.2-0.4,0.3-0.9,0.3-1.3v-2.4c-0.4,0.2-0.9,0.4-1.4,0.6
			c-0.6,0.2-1.1,0.3-1.7,0.4c-1.2,0.2-2.1,0.5-2.7,0.9c-0.6,0.4-1,1-1,1.9c0,0.4,0.1,0.8,0.2,1.1c0.2,0.3,0.4,0.5,0.6,0.7
			c0.3,0.2,0.5,0.3,0.9,0.4C40.4,202.9,40.8,202.9,41.1,202.9z"/>
		<path d="M49.9,189.1h2.5v-5.1h3.8v5.1h3.2v2.6h-3.2v9c0,0.6,0.2,1,0.5,1.2c0.3,0.2,0.7,0.3,1.3,0.3c0.2,0,0.4,0,0.6,0
			c0.2,0,0.4,0,0.6-0.1h0.2v3c-0.3,0.1-0.7,0.1-1.1,0.2c-0.4,0-0.9,0.1-1.4,0.1c-0.6,0-1.2-0.1-1.8-0.2c-0.5-0.1-1-0.3-1.4-0.6
			s-0.7-0.7-0.9-1.2c-0.2-0.5-0.3-1.1-0.3-1.8v-9.9h-2.5V189.1z"/>
		<path d="M59.9,189.1h2.5v-5.1h3.8v5.1h3.2v2.6h-3.2v9c0,0.6,0.2,1,0.5,1.2c0.3,0.2,0.7,0.3,1.3,0.3c0.2,0,0.4,0,0.6,0
			c0.2,0,0.4,0,0.6-0.1h0.2v3c-0.3,0.1-0.7,0.1-1.1,0.2c-0.4,0-0.9,0.1-1.4,0.1c-0.6,0-1.2-0.1-1.8-0.2c-0.5-0.1-1-0.3-1.4-0.6
			c-0.4-0.3-0.7-0.7-0.9-1.2c-0.2-0.5-0.3-1.1-0.3-1.8v-9.9h-2.5V189.1z"/>
		<path d="M78.2,205.7c-1.3,0-2.4-0.2-3.5-0.7c-1-0.4-1.9-1-2.6-1.8c-0.7-0.8-1.2-1.7-1.6-2.7c-0.4-1-0.6-2.1-0.6-3.3
			c0-1.2,0.2-2.3,0.6-3.4c0.4-1,0.9-1.9,1.6-2.7c0.7-0.8,1.6-1.4,2.5-1.8c1-0.4,2.1-0.6,3.3-0.6s2.2,0.2,3.2,0.6
			c0.9,0.4,1.7,1,2.4,1.7c0.8,0.8,1.4,1.9,1.8,3.1c0.4,1.2,0.6,2.6,0.5,4.1h-12c0.1,1.4,0.6,2.5,1.3,3.4c0.7,0.9,1.8,1.3,3.1,1.3
			c0.9,0,1.7-0.2,2.3-0.6c0.6-0.4,1-0.9,1.3-1.6h3.7c-0.2,0.7-0.5,1.4-0.9,2c-0.4,0.6-0.9,1.1-1.6,1.6c-0.6,0.5-1.3,0.8-2.2,1.1
			C80.1,205.5,79.2,205.7,78.2,205.7z M78,191.4c-1.3,0-2.2,0.4-2.9,1.2c-0.7,0.8-1.1,1.8-1.2,3.1h8c-0.1-1.3-0.5-2.4-1.1-3.1
			C80.1,191.8,79.2,191.4,78,191.4z"/>
		<path d="M95.3,205.7c-1.3,0-2.4-0.2-3.5-0.7c-1-0.4-1.9-1-2.6-1.8c-0.7-0.8-1.2-1.7-1.6-2.7c-0.4-1-0.6-2.1-0.6-3.3
			c0-1.2,0.2-2.3,0.6-3.4c0.4-1,0.9-1.9,1.6-2.7s1.6-1.4,2.5-1.8c1-0.4,2.1-0.6,3.3-0.6c1.2,0,2.2,0.2,3.2,0.6
			c0.9,0.4,1.7,1,2.4,1.7c0.8,0.8,1.4,1.9,1.8,3.1c0.4,1.2,0.6,2.6,0.5,4.1h-12c0.1,1.4,0.6,2.5,1.3,3.4c0.7,0.9,1.8,1.3,3.1,1.3
			c0.9,0,1.7-0.2,2.3-0.6c0.6-0.4,1-0.9,1.3-1.6h3.7c-0.2,0.7-0.5,1.4-0.9,2c-0.4,0.6-0.9,1.1-1.6,1.6c-0.6,0.5-1.3,0.8-2.2,1.1
			C97.2,205.5,96.3,205.7,95.3,205.7z M95.1,191.4c-1.3,0-2.2,0.4-2.9,1.2c-0.7,0.8-1.1,1.8-1.2,3.1h8c-0.1-1.3-0.5-2.4-1.1-3.1
			S96.3,191.4,95.1,191.4z"/>
		<path d="M103.2,189.1h2.5v-5.1h3.8v5.1h3.2v2.6h-3.2v9c0,0.6,0.2,1,0.5,1.2c0.3,0.2,0.7,0.3,1.3,0.3c0.2,0,0.4,0,0.6,0
			c0.2,0,0.4,0,0.6-0.1h0.2v3c-0.3,0.1-0.7,0.1-1.1,0.2c-0.4,0-0.9,0.1-1.4,0.1c-0.6,0-1.2-0.1-1.8-0.2c-0.5-0.1-1-0.3-1.4-0.6
			s-0.7-0.7-0.9-1.2c-0.2-0.5-0.3-1.1-0.3-1.8v-9.9h-2.5V189.1z"/>
		<path d="M124.6,205.2c-0.1-0.2-0.3-0.4-0.3-0.8c-0.1-0.3-0.2-0.8-0.2-1.3H124c-0.5,0.7-1.2,1.3-2,1.8c-0.8,0.5-1.8,0.7-3.1,0.7
			c-0.8,0-1.5-0.1-2.2-0.3c-0.7-0.2-1.3-0.5-1.7-0.9c-0.5-0.4-0.9-0.9-1.1-1.5s-0.4-1.3-0.4-2.1c0-0.9,0.2-1.7,0.5-2.2
			c0.3-0.6,0.8-1.1,1.4-1.4c0.6-0.4,1.3-0.6,2.1-0.8c0.8-0.2,1.7-0.3,2.7-0.5c1.3-0.2,2.3-0.4,3-0.7c0.7-0.3,1-0.8,1-1.5
			c0-0.7-0.2-1.3-0.7-1.7c-0.5-0.4-1.2-0.6-2.2-0.6c-1.1,0-1.9,0.2-2.4,0.7c-0.5,0.5-0.8,1.1-0.9,1.9h-3.6c0-0.7,0.2-1.3,0.5-2
			c0.3-0.6,0.7-1.2,1.3-1.7c0.6-0.5,1.3-0.9,2.1-1.2c0.8-0.3,1.8-0.4,3-0.4c0.9,0,1.7,0.1,2.5,0.2c0.7,0.1,1.3,0.4,1.9,0.7
			c1.5,0.9,2.3,2.5,2.3,4.6v8.5c0,0.7,0.1,1.2,0.2,1.5c0.1,0.4,0.3,0.6,0.4,0.7v0.3H124.6z M120,202.9c0.7,0,1.2-0.1,1.8-0.3
			c0.5-0.2,0.9-0.5,1.3-0.8c0.3-0.3,0.6-0.7,0.8-1.1c0.2-0.4,0.3-0.9,0.3-1.3v-2.4c-0.4,0.2-0.9,0.4-1.4,0.6
			c-0.6,0.2-1.1,0.3-1.7,0.4c-1.2,0.2-2.1,0.5-2.7,0.9c-0.6,0.4-1,1-1,1.9c0,0.4,0.1,0.8,0.2,1.1c0.2,0.3,0.4,0.5,0.6,0.7
			c0.3,0.2,0.5,0.3,0.9,0.4C119.3,202.9,119.7,202.9,120,202.9z"/>
		<path d="M128.1,189.1h2.5v-5.1h3.8v5.1h3.2v2.6h-3.2v9c0,0.6,0.2,1,0.5,1.2c0.3,0.2,0.7,0.3,1.3,0.3c0.2,0,0.4,0,0.6,0
			c0.2,0,0.4,0,0.6-0.1h0.2v3c-0.3,0.1-0.7,0.1-1.1,0.2c-0.4,0-0.9,0.1-1.4,0.1c-0.6,0-1.2-0.1-1.8-0.2c-0.5-0.1-1-0.3-1.4-0.6
			s-0.7-0.7-0.9-1.2c-0.2-0.5-0.3-1.1-0.3-1.8v-9.9h-2.5V189.1z"/>
		<path d="M146.3,205.7c-1.3,0-2.4-0.2-3.5-0.7c-1-0.4-1.9-1-2.6-1.8c-0.7-0.8-1.2-1.7-1.6-2.7c-0.4-1-0.6-2.1-0.6-3.3
			c0-1.2,0.2-2.3,0.6-3.4c0.4-1,0.9-1.9,1.6-2.7s1.6-1.4,2.5-1.8c1-0.4,2.1-0.6,3.3-0.6c1.2,0,2.2,0.2,3.2,0.6
			c0.9,0.4,1.7,1,2.4,1.7c0.8,0.8,1.4,1.9,1.8,3.1c0.4,1.2,0.6,2.6,0.5,4.1h-12c0.1,1.4,0.6,2.5,1.3,3.4c0.7,0.9,1.8,1.3,3.1,1.3
			c0.9,0,1.7-0.2,2.3-0.6c0.6-0.4,1-0.9,1.3-1.6h3.7c-0.2,0.7-0.5,1.4-0.9,2c-0.4,0.6-0.9,1.1-1.6,1.6c-0.6,0.5-1.3,0.8-2.2,1.1
			C148.2,205.5,147.3,205.7,146.3,205.7z M146.1,191.4c-1.3,0-2.2,0.4-2.9,1.2c-0.7,0.8-1.1,1.8-1.2,3.1h8c-0.1-1.3-0.5-2.4-1.1-3.1
			S147.3,191.4,146.1,191.4z"/>
		<path d="M159.2,191.4L159.2,191.4c0.6-0.9,1.3-1.6,2.1-2.1c0.8-0.5,1.8-0.7,3-0.7c1.8,0,3.1,0.5,4.1,1.5s1.5,2.4,1.5,4.1v10.9H166
			v-10.3c0-1-0.3-1.7-0.8-2.3c-0.5-0.5-1.3-0.8-2.3-0.8c-0.5,0-1,0.1-1.5,0.3c-0.4,0.2-0.8,0.5-1.1,0.8c-0.3,0.4-0.6,0.8-0.8,1.3
			c-0.2,0.5-0.3,1-0.3,1.6v9.4h-3.8v-16.1h3.7V191.4z"/>
	</g>
</g>
</svg>
